{"paging":{"page":1,"total":63159,"page_size":40,"pages":1579},"loans":[{"id":818794,"name":"Erdenetsetseg","description":{"languages":["en"]},"status":"fundraising","funded_amount":50,"basket_amount":0,"image":{"id":1763157,"template_id":1},"activity":"Fruits & Vegetables","sector":"Food","use":"to buy fruits in large amounts","location":{"country_code":"MN","country":"Mongolia","town":"Ulaanbaatar","geo":{"level":"town","pairs":"47.916667 106.916667","type":"point"}},"partner_id":42,"posted_date":"2014-12-26T01:10:02Z","planned_expiration_date":"2015-02-09T01:10:02Z","loan_amount":1600,"borrower_count":1,"lender_count":2,"bonus_credit_eligibility":true,"tags":[]},{"id":818754,"name":"Oyunchimeg","description":{"languages":["en"]},"status":"fundraising","funded_amount":375,"basket_amount":0,"image":{"id":1763105,"template_id":1},"activity":"Higher education costs","sector":"Education","use":"to pay tuition fee for her daughter","location":{"country_code":"MN","country":"Mongolia","town":"Ulaanbaatar","geo":{"level":"town","pairs":"47.916667 106.916667","type":"point"}},"partner_id":42,"posted_date":"2014-12-25T23:20:02Z","planned_expiration_date":"2015-02-08T23:20:02Z","loan_amount":800,"borrower_count":1,"lender_count":15,"bonus_credit_eligibility":true,"tags":[{"name":"user_favorite"}]},{"id":818708,"name":"Natela","description":{"languages":["en"]},"status":"fundraising","funded_amount":0,"basket_amount":0,"image":{"id":1762965,"template_id":1},"activity":"General Store","sector":"Retail","use":"To open a store and get a source of income ","location":{"country_code":"GE","country":"Georgia","town":"Rustavi","geo":{"level":"country","pairs":"42 43.5","type":"point"}},"partner_id":181,"posted_date":"2014-12-25T22:40:02Z","planned_expiration_date":"2015-02-08T22:40:02Z","loan_amount":2800,"borrower_count":1,"lender_count":0,"bonus_credit_eligibility":true,"tags":[]},{"id":817804,"name":"Zoirjon","description":{"languages":["ru","en"]},"status":"fundraising","funded_amount":0,"basket_amount":0,"image":{"id":1753253,"template_id":1},"activity":"Services","sector":"Services","use":"buy building materials.","location":{"country_code":"TJ","country":"Tajikistan","town":"Kanibadam","geo":{"level":"town","pairs":"40.283333 70.416667","type":"point"}},"partner_id":215,"posted_date":"2014-12-25T19:50:03Z","planned_expiration_date":"2015-02-08T19:50:03Z","loan_amount":600,"borrower_count":1,"lender_count":0,"bonus_credit_eligibility":true,"tags":[]},{"id":817811,"name":"Muhayyo","description":{"languages":["ru","en"]},"status":"fundraising","funded_amount":0,"basket_amount":0,"image":{"id":1761451,"template_id":1},"activity":"Bakery","sector":"Food","use":"buy ingredients to bake cakes.","location":{"country_code":"TJ","country":"Tajikistan","town":"Dushanbe","geo":{"level":"town","pairs":"38.56 68.773889","type":"point"}},"partner_id":63,"posted_date":"2014-12-25T19:40:02Z","planned_expiration_date":"2015-02-08T19:40:02Z","loan_amount":600,"borrower_count":1,"lender_count":0,"bonus_credit_eligibility":true,"tags":[]},{"id":817840,"name":"Khursheda","description":{"languages":["ru","en"]},"status":"fundraising","funded_amount":125,"basket_amount":0,"image":{"id":1761483,"template_id":1},"activity":"Agriculture","sector":"Agriculture","use":"buy wheat seed and fertilizer.","location":{"country_code":"TJ","country":"Tajikistan","town":"Jilikul","geo":{"level":"town","pairs":"37.493611 68.531111","type":"point"}},"partner_id":63,"posted_date":"2014-12-25T19:30:02Z","planned_expiration_date":"2015-02-08T19:30:02Z","loan_amount":400,"borrower_count":1,"lender_count":5,"bonus_credit_eligibility":true,"tags":[]},{"id":817854,"name":"Gulafzo","description":{"languages":["ru","en"]},"status":"funded","funded_amount":1000,"image":{"id":1761513,"template_id":1},"activity":"Higher education costs","sector":"Education","theme":"Higher Education","use":"pay tuition in medical school.","location":{"country_code":"TJ","country":"Tajikistan","town":"J.Rumy","geo":{"level":"country","pairs":"39 71","type":"point"}},"partner_id":63,"posted_date":"2014-12-25T19:20:02Z","planned_expiration_date":"2015-02-08T19:20:02Z","loan_amount":1000,"borrower_count":1,"lender_count":31,"bonus_credit_eligibility":true,"tags":[{"name":"volunteer_pick"},{"name":"volunteer_like"},{"name":"user_favorite"}]},{"id":817982,"name":"Gulnora","description":{"languages":["ru","en"]},"status":"fundraising","funded_amount":0,"basket_amount":0,"image":{"id":1761526,"template_id":1},"activity":"Agriculture","sector":"Agriculture","use":"buy wheat seed and fertilizer.","location":{"country_code":"TJ","country":"Tajikistan","town":"Jilikul","geo":{"level":"town","pairs":"37.493611 68.531111","type":"point"}},"partner_id":63,"posted_date":"2014-12-25T19:20:02Z","planned_expiration_date":"2015-02-08T19:20:02Z","loan_amount":975,"borrower_count":1,"lender_count":0,"bonus_credit_eligibility":true,"tags":[]},{"id":818034,"name":"Idigul","description":{"languages":["ru","en"]},"status":"fundraising","funded_amount":0,"basket_amount":0,"image":{"id":1761644,"template_id":1},"activity":"Fruits & Vegetables","sector":"Food","use":"buy fruits and vegetables to sell.","location":{"country_code":"TJ","country":"Tajikistan","town":"Jilikul","geo":{"level":"town","pairs":"37.493611 68.531111","type":"point"}},"partner_id":63,"posted_date":"2014-12-25T19:00:02Z","planned_expiration_date":"2015-02-08T19:00:02Z","loan_amount":600,"borrower_count":1,"lender_count":0,"bonus_credit_eligibility":true,"tags":[]},{"id":818519,"name":"Ruzanna","description":{"languages":["en"]},"status":"funded","funded_amount":550,"image":{"id":1762258,"template_id":1},"activity":"Education provider","sector":"Education","use":"to buy a computer, through which she will gain awareness of any methodological innovations in teaching processes and programs","location":{"country_code":"AM","country":"Armenia","town":"Lori region","geo":{"level":"country","pairs":"40 45","type":"point"}},"partner_id":146,"posted_date":"2014-12-25T16:20:07Z","planned_expiration_date":"2015-02-08T16:20:07Z","loan_amount":550,"borrower_count":1,"lender_count":14,"bonus_credit_eligibility":true,"tags":[]},{"id":818521,"name":"Lilia","description":{"languages":["en"]},"status":"fundraising","funded_amount":200,"basket_amount":0,"image":{"id":1762262,"template_id":1},"activity":"Dental","sector":"Health","use":"to solve her dental problem and to pass a course of teeth treatment","location":{"country_code":"AM","country":"Armenia","town":"Yerevan","geo":{"level":"country","pairs":"40 45","type":"point"}},"partner_id":146,"posted_date":"2014-12-25T16:20:07Z","planned_expiration_date":"2015-02-08T16:20:07Z","loan_amount":550,"borrower_count":1,"lender_count":6,"bonus_credit_eligibility":true,"tags":[]},{"id":818248,"name":"Veriko","description":{"languages":["en"]},"status":"fundraising","funded_amount":175,"basket_amount":0,"image":{"id":1761880,"template_id":1},"activity":"Home Products Sales","sector":"Retail","use":"to re-start trading business and generate more income","location":{"country_code":"GE","country":"Georgia","town":"Telavi","geo":{"level":"country","pairs":"42 43.5","type":"point"}},"partner_id":181,"posted_date":"2014-12-25T15:40:02Z","planned_expiration_date":"2015-02-08T15:40:02Z","loan_amount":500,"borrower_count":1,"lender_count":4,"bonus_credit_eligibility":true,"tags":[]},{"id":818349,"name":"Medea","description":{"languages":["en"]},"status":"fundraising","funded_amount":100,"basket_amount":0,"image":{"id":1762000,"template_id":1},"activity":"Dairy","sector":"Agriculture","use":"To purchase a cow and start producing milk products","location":{"country_code":"GE","country":"Georgia","town":"Akhalabastumani","geo":{"level":"country","pairs":"42 43.5","type":"point"}},"partner_id":181,"posted_date":"2014-12-25T15:30:03Z","planned_expiration_date":"2015-02-08T15:30:03Z","loan_amount":2000,"borrower_count":1,"lender_count":3,"bonus_credit_eligibility":false,"tags":[]},{"id":818333,"name":"Irma","description":{"languages":["en"]},"status":"fundraising","funded_amount":25,"basket_amount":0,"image":{"id":1761972,"template_id":1},"activity":"Retail","sector":"Retail","use":"To expand her trading business and open a shop ","location":{"country_code":"GE","country":"Georgia","town":"Rustavi","geo":{"level":"country","pairs":"42 43.5","type":"point"}},"partner_id":181,"posted_date":"2014-12-25T14:40:03Z","planned_expiration_date":"2015-02-08T14:40:02Z","loan_amount":1800,"borrower_count":1,"lender_count":1,"bonus_credit_eligibility":true,"tags":[]},{"id":818342,"name":"Nazibrola","description":{"languages":["en"]},"status":"fundraising","funded_amount":0,"basket_amount":0,"image":{"id":1761988,"template_id":1},"activity":"Clothing Sales","sector":"Clothing","use":"To start a trading business and improve her family's living condition","location":{"country_code":"GE","country":"Georgia","town":"Nosiri","geo":{"level":"country","pairs":"42 43.5","type":"point"}},"partner_id":181,"posted_date":"2014-12-25T14:40:03Z","planned_expiration_date":"2015-02-08T14:40:03Z","loan_amount":4700,"borrower_count":1,"lender_count":0,"bonus_credit_eligibility":false,"tags":[]},{"id":818279,"name":"Maguli","description":{"languages":["en"]},"status":"fundraising","funded_amount":0,"basket_amount":0,"image":{"id":1761912,"template_id":1},"activity":"Clothing Sales","sector":"Clothing","use":"to start a retail clothing business","location":{"country_code":"GE","country":"Georgia","town":"Kutaisi","geo":{"level":"country","pairs":"42 43.5","type":"point"}},"partner_id":181,"posted_date":"2014-12-25T14:10:02Z","planned_expiration_date":"2015-02-08T14:10:02Z","loan_amount":300,"borrower_count":1,"lender_count":0,"bonus_credit_eligibility":true,"tags":[]},{"id":818263,"name":"Jujuna","description":{"languages":["en"]},"status":"fundraising","funded_amount":50,"basket_amount":0,"image":{"id":1761895,"template_id":1},"activity":"Clothing Sales","sector":"Clothing","use":"to generate her own income and start selling babies' clothing","location":{"country_code":"GE","country":"Georgia","town":"Chakvi","geo":{"level":"country","pairs":"42 43.5","type":"point"}},"partner_id":181,"posted_date":"2014-12-25T13:50:03Z","planned_expiration_date":"2015-02-08T13:50:03Z","loan_amount":1750,"borrower_count":1,"lender_count":2,"bonus_credit_eligibility":false,"tags":[{"name":"#FirstLoan"},{"name":"#WomanOwnedBiz"},{"name":"#Parent"}]},{"id":818225,"name":"Zef","description":{"languages":["en"]},"status":"fundraising","funded_amount":50,"basket_amount":0,"image":{"id":1761864,"template_id":1},"activity":"Higher education costs","sector":"Education","theme":"Underfunded Areas","use":"to pay for his son's master's degree and other schooling-related fees","location":{"country_code":"AL","country":"Albania","geo":{"level":"country","pairs":"41 20","type":"point"}},"partner_id":239,"posted_date":"2014-12-25T13:30:02Z","planned_expiration_date":"2015-02-08T13:30:02Z","loan_amount":2650,"borrower_count":1,"lender_count":2,"bonus_credit_eligibility":false,"tags":[{"name":"user_favorite"}]},{"id":817797,"name":"Khurma","description":{"languages":["ru","en"]},"status":"fundraising","funded_amount":50,"basket_amount":0,"image":{"id":1761446,"template_id":1},"activity":"Clothing Sales","sector":"Clothing","use":"to purchase children's items, toys, fabric, scarves","location":{"country_code":"TJ","country":"Tajikistan","town":"Pyandj","geo":{"level":"country","pairs":"39 71","type":"point"}},"partner_id":63,"posted_date":"2014-12-25T12:40:02Z","planned_expiration_date":"2015-02-08T12:40:02Z","loan_amount":975,"borrower_count":1,"lender_count":2,"bonus_credit_eligibility":true,"tags":[]},{"id":817377,"name":"Nurzhamal","description":{"languages":["ru","en"]},"status":"funded","funded_amount":175,"image":{"id":1760898,"template_id":1},"activity":"Farming","sector":"Agriculture","use":"to cultivate her land and purchase fertilizers in order to grow ecological corn and wheat","location":{"country_code":"KG","country":"Kyrgyzstan","town":"Noogardan village","geo":{"level":"country","pairs":"41 75","type":"point"}},"partner_id":171,"posted_date":"2014-12-25T12:30:02Z","planned_expiration_date":"2015-02-08T12:30:02Z","loan_amount":175,"borrower_count":1,"lender_count":5,"bonus_credit_eligibility":true,"tags":[{"name":"volunteer_pick"},{"name":"#WomanOwnedBiz"},{"name":"#SustainableAg"},{"name":"#Eco-friendly"},{"name":"#Vegan"},{"name":"#Parent"}]},{"id":817342,"name":"Okhirmo","description":{"languages":["ru","en"]},"status":"fundraising","funded_amount":0,"basket_amount":0,"image":{"id":1760745,"template_id":1},"activity":"Cosmetics Sales","sector":"Retail","use":"to purchase cosmetics and perfumes to sell","location":{"country_code":"TJ","country":"Tajikistan","town":"Rudaki","geo":{"level":"town","pairs":"38.133333 68.958333","type":"point"}},"partner_id":63,"posted_date":"2014-12-25T12:20:02Z","planned_expiration_date":"2015-02-08T12:20:02Z","loan_amount":500,"borrower_count":1,"lender_count":0,"bonus_credit_eligibility":true,"tags":[]},{"id":817349,"name":"Jamila","description":{"languages":["ru","en"]},"status":"fundraising","funded_amount":1050,"basket_amount":0,"image":{"id":1760777,"template_id":1},"activity":"Agriculture","sector":"Agriculture","use":"to increase the number of livestock","location":{"country_code":"TJ","country":"Tajikistan","town":"J.Rumy","geo":{"level":"country","pairs":"39 71","type":"point"}},"partner_id":63,"posted_date":"2014-12-25T12:20:02Z","planned_expiration_date":"2015-02-08T12:20:02Z","loan_amount":1950,"borrower_count":1,"lender_count":32,"bonus_credit_eligibility":true,"tags":[]},{"id":817168,"name":"Ihtiyor","description":{"languages":["ru","en"]},"status":"fundraising","funded_amount":0,"basket_amount":0,"image":{"id":1757464,"template_id":1},"activity":"Livestock","sector":"Agriculture","use":"to purchase livestock ","location":{"country_code":"TJ","country":"Tajikistan","town":"Mastchoh","geo":{"level":"country","pairs":"39 71","type":"point"}},"partner_id":215,"posted_date":"2014-12-25T12:10:02Z","planned_expiration_date":"2015-02-08T12:10:02Z","loan_amount":800,"borrower_count":1,"lender_count":0,"bonus_credit_eligibility":true,"tags":[{"name":"volunteer_pick"},{"name":"#Animals"},{"name":"#Parent"}]},{"id":818213,"name":"Lindita","description":{"languages":["en"]},"status":"fundraising","funded_amount":650,"basket_amount":0,"image":{"id":1761851,"template_id":1},"activity":"Livestock","sector":"Agriculture","theme":"Underfunded Areas","use":"to buy two baby calves and a dairy cow as well as a calf that she had previously bought on credit.","location":{"country_code":"AL","country":"Albania","geo":{"level":"country","pairs":"41 20","type":"point"}},"partner_id":239,"posted_date":"2014-12-25T12:00:02Z","planned_expiration_date":"2015-02-08T12:00:02Z","loan_amount":1775,"borrower_count":1,"lender_count":16,"bonus_credit_eligibility":false,"tags":[{"name":"volunteer_pick"}]},{"id":818202,"name":"Hava","description":{"languages":["en"]},"status":"fundraising","funded_amount":25,"basket_amount":0,"image":{"id":1761843,"template_id":1},"activity":"Personal Purchases","sector":"Personal Use","theme":"Underfunded Areas","use":"to pay for the couple's retirement contribution. ","location":{"country_code":"AL","country":"Albania","town":"Korce","geo":{"level":"country","pairs":"41 20","type":"point"}},"partner_id":239,"posted_date":"2014-12-25T11:30:02Z","planned_expiration_date":"2015-02-08T11:30:02Z","loan_amount":975,"borrower_count":1,"lender_count":1,"bonus_credit_eligibility":false,"tags":[]},{"id":818186,"name":"Barije","description":{"languages":["en"]},"status":"fundraising","funded_amount":200,"basket_amount":0,"image":{"id":1761825,"template_id":1},"activity":"Decorations Sales","sector":"Retail","theme":"Vulnerable Groups","use":"to buy seasonal ornaments and other decorations to resell.","location":{"country_code":"AL","country":"Albania","town":"Korce","geo":{"level":"country","pairs":"41 20","type":"point"}},"partner_id":239,"posted_date":"2014-12-25T09:20:03Z","planned_expiration_date":"2015-02-08T09:20:02Z","loan_amount":900,"borrower_count":1,"lender_count":6,"bonus_credit_eligibility":false,"tags":[{"name":"#WomanOwnedBiz"},{"name":"#Elderly"}]},{"id":817783,"name":"Ulugbek","description":{"languages":["ru","en"]},"status":"fundraising","funded_amount":0,"basket_amount":0,"image":{"id":1755767,"template_id":1},"activity":"Animal Sales","sector":"Agriculture","use":"to buy livestock","location":{"country_code":"TJ","country":"Tajikistan","town":"Mastchoh","geo":{"level":"country","pairs":"39 71","type":"point"}},"partner_id":215,"posted_date":"2014-12-25T08:20:02Z","planned_expiration_date":"2015-02-08T08:20:02Z","loan_amount":600,"borrower_count":1,"lender_count":0,"bonus_credit_eligibility":true,"tags":[]},{"id":817790,"name":"Sitorabonu","description":{"languages":["ru","en"]},"status":"fundraising","funded_amount":0,"basket_amount":0,"image":{"id":1761435,"template_id":1},"activity":"Sewing","sector":"Services","use":"to purchase a computerized sewing machine","location":{"country_code":"TJ","country":"Tajikistan","town":"Rudaki","geo":{"level":"town","pairs":"38.133333 68.958333","type":"point"}},"partner_id":63,"posted_date":"2014-12-25T08:10:02Z","planned_expiration_date":"2015-02-08T08:10:02Z","loan_amount":975,"borrower_count":1,"lender_count":0,"bonus_credit_eligibility":true,"tags":[]},{"id":818181,"name":"Pavle","description":{"languages":["en"]},"status":"fundraising","funded_amount":925,"basket_amount":0,"image":{"id":1418549,"template_id":1},"activity":"Farming","sector":"Agriculture","theme":"Vulnerable Groups","use":"to purchase new tools for his tractor to continue to enhance his business and make his work even easier","location":{"country_code":"XK","country":"Kosovo","geo":{"level":"country","pairs":"42.583333 21","type":"point"}},"partner_id":240,"posted_date":"2014-12-25T08:00:03Z","planned_expiration_date":"2015-02-08T08:00:03Z","loan_amount":1250,"borrower_count":1,"lender_count":23,"bonus_credit_eligibility":true,"tags":[{"name":"user_favorite"},{"name":"#Vegan"},{"name":"#Parent"},{"name":"#RepeatBorrower"},{"name":"#Refugee"},{"name":"#IncomeProducingDurableAsset"}]},{"id":818175,"name":"Kemajl","description":{"languages":["en"]},"status":"fundraising","funded_amount":50,"basket_amount":0,"image":{"id":1761815,"template_id":1},"activity":"Construction Supplies","sector":"Construction","use":"to purchase more scaffolding so that he can gain more profit","location":{"country_code":"XK","country":"Kosovo","geo":{"level":"country","pairs":"42.583333 21","type":"point"}},"partner_id":240,"posted_date":"2014-12-25T08:00:02Z","planned_expiration_date":"2015-02-08T08:00:02Z","loan_amount":1850,"borrower_count":1,"lender_count":2,"bonus_credit_eligibility":true,"tags":[{"name":"user_favorite"}]},{"id":817446,"name":"Matluba","description":{"languages":["ru","en"]},"status":"fundraising","funded_amount":0,"basket_amount":0,"image":{"id":1760927,"template_id":1},"activity":"Personal Purchases","sector":"Personal Use","use":"to buy furniture in order to improve her home environment","location":{"country_code":"TJ","country":"Tajikistan","town":"Dushanbe","geo":{"level":"town","pairs":"38.56 68.773889","type":"point"}},"partner_id":63,"posted_date":"2014-12-25T08:00:02Z","planned_expiration_date":"2015-02-08T08:00:02Z","loan_amount":1000,"borrower_count":1,"lender_count":0,"bonus_credit_eligibility":true,"tags":[]},{"id":817777,"name":"Donish","description":{"languages":["ru","en"]},"status":"fundraising","funded_amount":100,"basket_amount":0,"image":{"id":1760991,"template_id":1},"activity":"Agriculture","sector":"Agriculture","use":"to buy mineral fertilizers, to hire a tractor and pay for fuel","location":{"country_code":"TJ","country":"Tajikistan","town":"J.Rumy","geo":{"level":"country","pairs":"39 71","type":"point"}},"partner_id":63,"posted_date":"2014-12-25T08:00:02Z","planned_expiration_date":"2015-02-08T08:00:02Z","loan_amount":1575,"borrower_count":1,"lender_count":4,"bonus_credit_eligibility":true,"tags":[{"name":"user_favorite"}]},{"id":818171,"name":"Fatos","description":{"languages":["en"]},"status":"fundraising","funded_amount":100,"basket_amount":0,"image":{"id":1761801,"template_id":1},"activity":"Farming","sector":"Agriculture","use":"to pay for the water irrigation and wells for the water to start a business planting fruits, such as apples and pears","location":{"country_code":"XK","country":"Kosovo","geo":{"level":"country","pairs":"42.583333 21","type":"point"}},"partner_id":240,"posted_date":"2014-12-25T07:50:03Z","planned_expiration_date":"2015-02-08T07:50:03Z","loan_amount":2475,"borrower_count":1,"lender_count":3,"bonus_credit_eligibility":true,"tags":[{"name":"user_favorite"}]},{"id":818179,"name":"Xhevdet","description":{"languages":["en"]},"status":"fundraising","funded_amount":425,"basket_amount":0,"image":{"id":1761818,"template_id":1},"activity":"Dairy","sector":"Agriculture","use":"to purchase another milk cow so that he can sell the milk and other dairy products for additional income","location":{"country_code":"XK","country":"Kosovo","geo":{"level":"country","pairs":"42.583333 21","type":"point"}},"partner_id":240,"posted_date":"2014-12-25T07:50:03Z","planned_expiration_date":"2015-02-08T07:50:03Z","loan_amount":625,"borrower_count":1,"lender_count":10,"bonus_credit_eligibility":false,"tags":[]},{"id":818166,"name":"Ismete","description":{"languages":["en"]},"status":"fundraising","funded_amount":150,"basket_amount":0,"image":{"id":1761802,"template_id":1},"activity":"Personal Medical Expenses","sector":"Health","theme":"Underfunded Areas","use":"to pay for a surgery she has been scheduled for as early as next month","location":{"country_code":"AL","country":"Albania","town":"Lezhe","geo":{"level":"country","pairs":"41 20","type":"point"}},"partner_id":239,"posted_date":"2014-12-25T07:30:03Z","planned_expiration_date":"2015-02-08T07:30:03Z","loan_amount":1075,"borrower_count":1,"lender_count":5,"bonus_credit_eligibility":false,"tags":[{"name":"user_favorite"}]},{"id":817423,"name":"Dilorom","description":{"languages":["ru","en"]},"status":"funded","funded_amount":975,"image":{"id":1760938,"template_id":1},"activity":"Personal Medical Expenses","sector":"Health","use":"to buy medications for her three-year-old daughter","location":{"country_code":"TJ","country":"Tajikistan","town":"J.Rumy","geo":{"level":"country","pairs":"39 71","type":"point"}},"partner_id":63,"posted_date":"2014-12-25T07:30:02Z","planned_expiration_date":"2015-02-08T07:30:02Z","loan_amount":975,"borrower_count":1,"lender_count":36,"bonus_credit_eligibility":true,"tags":[{"name":"user_favorite"},{"name":"#Parent"},{"name":"#InspiringStory"},{"name":"#HealthAndSanitation"}]},{"id":817776,"name":"Bahrom","description":{"languages":["ru","en"]},"status":"fundraising","funded_amount":0,"basket_amount":0,"image":{"id":1757118,"template_id":1},"activity":"Agriculture","sector":"Agriculture","use":"to buy seed","location":{"country_code":"TJ","country":"Tajikistan","town":"Mastchoh","geo":{"level":"country","pairs":"39 71","type":"point"}},"partner_id":215,"posted_date":"2014-12-25T07:20:03Z","planned_expiration_date":"2015-02-08T07:20:03Z","loan_amount":1000,"borrower_count":1,"lender_count":0,"bonus_credit_eligibility":true,"tags":[]},{"id":817469,"name":"Anipahan","description":{"languages":["ru","en"]},"status":"fundraising","funded_amount":75,"basket_amount":0,"image":{"id":1761045,"template_id":1},"activity":"Livestock","sector":"Agriculture","use":"to purchase two steers for fattening up and resale","location":{"country_code":"KG","country":"Kyrgyzstan","town":"Min-Chynar village","geo":{"level":"country","pairs":"41 75","type":"point"}},"partner_id":171,"posted_date":"2014-12-25T07:00:03Z","planned_expiration_date":"2015-02-08T07:00:02Z","loan_amount":1750,"borrower_count":1,"lender_count":3,"bonus_credit_eligibility":true,"tags":[]},{"id":817392,"name":"Zarifa","description":{"languages":["ru","en"]},"status":"fundraising","funded_amount":0,"basket_amount":0,"image":{"id":1760924,"template_id":1},"activity":"Agriculture","sector":"Agriculture","use":"to buy potato seeds in order to grow ecologically clean vegetables","location":{"country_code":"KG","country":"Kyrgyzstan","town":"Tobokorgon village","geo":{"level":"country","pairs":"41 75","type":"point"}},"partner_id":171,"posted_date":"2014-12-25T07:00:02Z","planned_expiration_date":"2015-02-08T07:00:02Z","loan_amount":875,"borrower_count":1,"lender_count":0,"bonus_credit_eligibility":true,"tags":[]},{"id":817382,"name":"Ziyoda","description":{"languages":["ru","en"]},"status":"funded","funded_amount":275,"image":{"id":1760884,"template_id":1},"activity":"Sewing","sector":"Services","use":"to buy a sewing machine","location":{"country_code":"TJ","country":"Tajikistan","town":"J.Rumy","geo":{"level":"country","pairs":"39 71","type":"point"}},"partner_id":63,"posted_date":"2014-12-25T06:50:03Z","planned_expiration_date":"2015-02-08T06:50:03Z","loan_amount":275,"borrower_count":1,"lender_count":11,"bonus_credit_eligibility":true,"tags":[]}]}
